{
  "dependencies": {
    "Microsoft.AspNetCore.Diagnostics": "1.0.0",
    "Microsoft.AspNetCore.Server.IISIntegration": "1.0.0",
    "Microsoft.AspNetCore.Server.Kestrel": "1.0.0",
    "Microsoft.AspNet.StaticFiles": "1.0.0-rc1-final",
    "Microsoft.AspNet.SignalR.Core": "2.2.1",
    "Microsoft.AspNet.SignalR.Owin": "1.2.2",
    "Microsoft.AspNetCore.Owin": "1.0.0",
    "Microsoft.AspNetCore.Mvc": "1.0.0",
    "Microsoft.AspNet.Owin": "1.0.0-rc1-final",
    "Microsoft.AspNetCore.StaticFiles": "1.0.0",
    "Newtonsoft.Json": "9.0.1",
    "StructureMap.Dnx": "1.2.0"
  },

  "tools": {
    "Microsoft.AspNetCore.Server.IISIntegration.Tools": "1.0.0-preview2-final"
  },

  "frameworks": {
    "net461": {
      "dependencies": {
        "EventBooking.Server": {
          "target": "project"
        }
      }
    }
  },

  "buildOptions": {
    "emitEntryPoint": true,
    "preserveCompilationContext": true
  },

  "publishOptions": {
    "include": [
      "wwwroot",
      "web.config"
    ]
  },

  "scripts": {
    "postpublish": [ "dotnet publish-iis --publish-folder %publish:OutputPath% --framework %publish:FullTargetFramework%" ]
  }
}
